<?xml version="1.0" encoding="UTF-8" standalone="no"?>
<!-- Created with Inkscape (http://www.inkscape.org/) -->

<svg
   xmlns:dc="http://purl.org/dc/elements/1.1/"
   xmlns:cc="http://creativecommons.org/ns#"
   xmlns:rdf="http://www.w3.org/1999/02/22-rdf-syntax-ns#"
   xmlns:svg="http://www.w3.org/2000/svg"
   xmlns="http://www.w3.org/2000/svg"
   xmlns:sodipodi="http://sodipodi.sourceforge.net/DTD/sodipodi-0.dtd"
   xmlns:inkscape="http://www.inkscape.org/namespaces/inkscape"
   width="210mm"
   height="297mm"
   viewBox="0 0 744.09448819 1052.3622047"
   id="svg2"
   version="1.1"
   inkscape:version="0.91 r13725"
   sodipodi:docname="drawing.svg">
  <defs
     id="defs4" />
  <sodipodi:namedview
     id="base"
     pagecolor="#ffffff"
     bordercolor="#666666"
     borderopacity="1.0"
     inkscape:pageopacity="0.0"
     inkscape:pageshadow="2"
     inkscape:zoom="2.8"
     inkscape:cx="199.61746"
     inkscape:cy="283.20092"
     inkscape:document-units="px"
     inkscape:current-layer="layer1"
     showgrid="false"
     inkscape:window-width="1600"
     inkscape:window-height="1178"
     inkscape:window-x="-8"
     inkscape:window-y="-8"
     inkscape:window-maximized="1" />
  <metadata
     id="metadata7">
    <rdf:RDF>
      <cc:Work
         rdf:about="">
        <dc:format>image/svg+xml</dc:format>
        <dc:type
           rdf:resource="http://purl.org/dc/dcmitype/StillImage" />
        <dc:title />
      </cc:Work>
    </rdf:RDF>
  </metadata>
  <g
     inkscape:label="Layer 1"
     inkscape:groupmode="layer"
     id="layer1">
    <g
       id="g4160"
       style="stroke:#000000;stroke-opacity:0.47420636">
      <g
         id="g3342"
         style="stroke:#000000;stroke-opacity:0.47420636">
        <rect
           style="fill:#e6e6e6;fill-opacity:1;stroke:#000000;stroke-width:1;stroke-miterlimit:4;stroke-dasharray:none;stroke-opacity:0.47420636"
           id="rect3340"
           width="21.213203"
           height="18.818165"
           x="82.327438"
           y="-810.74835"
           transform="scale(1,-1)" />
        <circle
           style="fill:#d40000;fill-opacity:1;stroke:#000000;stroke-width:1;stroke-miterlimit:4;stroke-dasharray:none;stroke-opacity:0.47420636"
           id="path3336"
           cx="92.85714"
           cy="802.36224"
           r="6.4285707" />
      </g>
      <g
         transform="translate(21.213203,0)"
         id="g3346"
         style="stroke:#000000;stroke-opacity:0.47420636">
        <rect
           transform="scale(1,-1)"
           y="-810.74835"
           x="82.327438"
           height="18.818165"
           width="21.213203"
           id="rect3348"
           style="fill:#e6e6e6;fill-opacity:1;stroke:#000000;stroke-width:1;stroke-miterlimit:4;stroke-dasharray:none;stroke-opacity:0.47420636" />
        <circle
           r="6.4285707"
           cy="802.36224"
           cx="92.85714"
           id="circle3350"
           style="fill:#d40000;fill-opacity:1;stroke:#000000;stroke-width:1;stroke-miterlimit:4;stroke-dasharray:none;stroke-opacity:0.47420636" />
      </g>
      <g
         id="g3352"
         transform="translate(10.141774,-18.571429)"
         style="stroke:#000000;stroke-opacity:0.47420636">
        <rect
           style="fill:#e6e6e6;fill-opacity:1;stroke:#000000;stroke-width:1;stroke-miterlimit:4;stroke-dasharray:none;stroke-opacity:0.47420636"
           id="rect3354"
           width="21.213203"
           height="18.818165"
           x="82.327438"
           y="-810.74835"
           transform="scale(1,-1)" />
        <circle
           style="fill:#d40000;fill-opacity:1;stroke:#000000;stroke-width:1;stroke-miterlimit:4;stroke-dasharray:none;stroke-opacity:0.47420636"
           id="circle3356"
           cx="92.85714"
           cy="802.36224"
           r="6.4285707" />
      </g>
      <rect
         y="773.78143"
         x="82.133568"
         height="36.447155"
         width="42.161438"
         id="rect3358"
         style="fill:none;fill-opacity:1;stroke:#000000;stroke-width:0.98141712;stroke-miterlimit:4;stroke-dasharray:none;stroke-opacity:0.47420636" />
    </g>
    <g
       id="g4174"
       transform="translate(42.5,0)">
      <rect
         style="fill:#e6e6e6;fill-opacity:1;stroke:none;stroke-width:1;stroke-miterlimit:4;stroke-dasharray:none"
         id="rect4176"
         width="21.213203"
         height="18.818165"
         x="82.327438"
         y="-810.74835"
         transform="scale(1,-1)" />
      <circle
         style="fill:#d40000;fill-opacity:1;stroke:none;stroke-width:1;stroke-miterlimit:4;stroke-dasharray:none"
         id="circle4178"
         cx="92.85714"
         cy="802.36224"
         r="6.4285707" />
    </g>
    <g
       transform="translate(63.713203,0)"
       id="g4180">
      <rect
         transform="scale(1,-1)"
         y="-810.74835"
         x="82.327438"
         height="18.818165"
         width="21.213203"
         id="rect4182"
         style="fill:#e6e6e6;fill-opacity:1;stroke:none;stroke-width:1;stroke-miterlimit:4;stroke-dasharray:none" />
      <circle
         r="6.4285707"
         cy="802.36224"
         cx="92.85714"
         id="circle4184"
         style="fill:#d40000;fill-opacity:1;stroke:none;stroke-width:1;stroke-miterlimit:4;stroke-dasharray:none" />
    </g>
    <g
       id="g4186"
       transform="translate(52.641774,-18.571429)">
      <rect
         style="fill:#e6e6e6;fill-opacity:1;stroke:none;stroke-width:1;stroke-miterlimit:4;stroke-dasharray:none"
         id="rect4188"
         width="21.213203"
         height="18.818165"
         x="82.327438"
         y="-810.74835"
         transform="scale(1,-1)" />
      <circle
         style="fill:#d40000;fill-opacity:1;stroke:none;stroke-width:1;stroke-miterlimit:4;stroke-dasharray:none"
         id="circle4190"
         cx="92.85714"
         cy="802.36224"
         r="6.4285707" />
    </g>
    <rect
       y="773.78143"
       x="124.63357"
       height="36.447155"
       width="42.161438"
       id="rect4192"
       style="fill:none;fill-opacity:1;stroke:#000000;stroke-width:0.98141712;stroke-miterlimit:4;stroke-dasharray:none;stroke-opacity:0.47420636" />
    <g
       transform="translate(30.141774,-37.142858)"
       id="g4204">
      <rect
         transform="scale(1,-1)"
         y="-810.74835"
         x="82.327438"
         height="18.818165"
         width="21.213203"
         id="rect4206"
         style="fill:#e6e6e6;fill-opacity:1;stroke:none;stroke-width:1;stroke-miterlimit:4;stroke-dasharray:none" />
      <circle
         r="6.4285707"
         cy="802.36224"
         cx="92.85714"
         id="circle4208"
         style="fill:#d40000;fill-opacity:1;stroke:none;stroke-width:1;stroke-miterlimit:4;stroke-dasharray:none" />
    </g>
    <rect
       style="fill:none;fill-opacity:1;stroke:#000000;stroke-width:0.98141712;stroke-miterlimit:4;stroke-dasharray:none;stroke-opacity:0.47420636"
       id="rect4210"
       width="85.018585"
       height="55.375713"
       x="81.776428"
       y="754.85284" />
    <g
       id="g4212"
       transform="translate(84.784631,-56.428572)">
      <rect
         style="fill:#e6e6e6;fill-opacity:1;stroke:none;stroke-width:1;stroke-miterlimit:4;stroke-dasharray:none"
         id="rect4214"
         width="21.213203"
         height="18.818165"
         x="82.327438"
         y="-810.74835"
         transform="scale(1,-1)" />
      <circle
         style="fill:#d40000;fill-opacity:1;stroke:none;stroke-width:1;stroke-miterlimit:4;stroke-dasharray:none"
         id="circle4216"
         cx="92.85714"
         cy="802.36224"
         r="6.4285707" />
    </g>
    <g
       transform="translate(56.927488,-75.357143)"
       id="g4218">
      <rect
         transform="scale(1,-1)"
         y="-810.74835"
         x="82.327438"
         height="18.818165"
         width="21.213203"
         id="rect4220"
         style="fill:#e6e6e6;fill-opacity:1;stroke:none;stroke-width:1;stroke-miterlimit:4;stroke-dasharray:none" />
      <circle
         r="6.4285707"
         cy="802.36224"
         cx="92.85714"
         id="circle4222"
         style="fill:#d40000;fill-opacity:1;stroke:none;stroke-width:1;stroke-miterlimit:4;stroke-dasharray:none" />
    </g>
    <g
       id="g4224"
       transform="translate(56.927488,-94.285714)">
      <rect
         style="fill:#e6e6e6;fill-opacity:1;stroke:none;stroke-width:1;stroke-miterlimit:4;stroke-dasharray:none"
         id="rect4226"
         width="21.213203"
         height="18.818165"
         x="82.327438"
         y="-810.74835"
         transform="scale(1,-1)" />
      <circle
         style="fill:#d40000;fill-opacity:1;stroke:none;stroke-width:1;stroke-miterlimit:4;stroke-dasharray:none"
         id="circle4228"
         cx="92.85714"
         cy="802.36224"
         r="6.4285707" />
    </g>
    <rect
       y="735.56714"
       x="81.776428"
       height="74.661446"
       width="106.80429"
       id="rect4230"
       style="fill:none;fill-opacity:1;stroke:#000000;stroke-width:0.98141712;stroke-miterlimit:4;stroke-dasharray:none;stroke-opacity:0.40277779" />
    <rect
       style="fill:none;fill-opacity:1;stroke:#000000;stroke-width:0.98141712;stroke-miterlimit:4;stroke-dasharray:none;stroke-opacity:0.47420636"
       id="rect4232"
       width="106.80429"
       height="93.232864"
       x="81.776428"
       y="716.99573" />
    <g
       transform="translate(128.35606,-8.0229188e-7)"
       id="g4234">
      <rect
         transform="scale(1,-1)"
         y="-810.74835"
         x="82.327438"
         height="18.818165"
         width="21.213203"
         id="rect4236"
         style="fill:#e6e6e6;fill-opacity:1;stroke:none;stroke-width:1;stroke-miterlimit:4;stroke-dasharray:none" />
      <circle
         r="6.4285707"
         cy="802.36224"
         cx="92.85714"
         id="circle4238"
         style="fill:#d40000;fill-opacity:1;stroke:none;stroke-width:1;stroke-miterlimit:4;stroke-dasharray:none" />
    </g>
    <g
       id="g4240"
       transform="translate(128.35606,-18.571429)">
      <rect
         style="fill:#e6e6e6;fill-opacity:1;stroke:none;stroke-width:1;stroke-miterlimit:4;stroke-dasharray:none"
         id="rect4242"
         width="21.213203"
         height="18.818165"
         x="82.327438"
         y="-810.74835"
         transform="scale(1,-1)" />
      <circle
         style="fill:#d40000;fill-opacity:1;stroke:none;stroke-width:1;stroke-miterlimit:4;stroke-dasharray:none"
         id="circle4244"
         cx="92.85714"
         cy="802.36224"
         r="6.4285707" />
    </g>
    <g
       transform="translate(128.35606,-37.142858)"
       id="g4246">
      <rect
         transform="scale(1,-1)"
         y="-810.74835"
         x="82.327438"
         height="18.818165"
         width="21.213203"
         id="rect4248"
         style="fill:#e6e6e6;fill-opacity:1;stroke:none;stroke-width:1;stroke-miterlimit:4;stroke-dasharray:none" />
      <circle
         r="6.4285707"
         cy="802.36224"
         cx="92.85714"
         id="circle4250"
         style="fill:#d40000;fill-opacity:1;stroke:none;stroke-width:1;stroke-miterlimit:4;stroke-dasharray:none" />
    </g>
    <g
       id="g4252"
       transform="translate(128.35606,-55.357144)">
      <rect
         style="fill:#e6e6e6;fill-opacity:1;stroke:none;stroke-width:1;stroke-miterlimit:4;stroke-dasharray:none"
         id="rect4254"
         width="21.213203"
         height="18.818165"
         x="82.327438"
         y="-810.74835"
         transform="scale(1,-1)" />
      <circle
         style="fill:#d40000;fill-opacity:1;stroke:none;stroke-width:1;stroke-miterlimit:4;stroke-dasharray:none"
         id="circle4256"
         cx="92.85714"
         cy="802.36224"
         r="6.4285707" />
    </g>
    <rect
       y="736.28143"
       x="210.70499"
       height="74.304276"
       width="22.161415"
       id="rect4258"
       style="fill:none;fill-opacity:1;stroke:#000000;stroke-width:0.98141712;stroke-miterlimit:4;stroke-dasharray:none;stroke-opacity:0.47420636" />
    <g
       transform="translate(151.07144,-18.928571)"
       id="g4260">
      <rect
         transform="scale(1,-1)"
         y="-810.74835"
         x="82.327438"
         height="18.818165"
         width="21.213203"
         id="rect4262"
         style="fill:#e6e6e6;fill-opacity:1;stroke:none;stroke-width:1;stroke-miterlimit:4;stroke-dasharray:none" />
      <circle
         r="6.4285707"
         cy="802.36224"
         cx="92.85714"
         id="circle4264"
         style="fill:#d40000;fill-opacity:1;stroke:none;stroke-width:1;stroke-miterlimit:4;stroke-dasharray:none" />
    </g>
    <g
       id="g4266"
       transform="translate(172.28464,-18.928571)">
      <rect
         style="fill:#e6e6e6;fill-opacity:1;stroke:none;stroke-width:1;stroke-miterlimit:4;stroke-dasharray:none"
         id="rect4268"
         width="21.213203"
         height="18.818165"
         x="82.327438"
         y="-810.74835"
         transform="scale(1,-1)" />
      <circle
         style="fill:#d40000;fill-opacity:1;stroke:none;stroke-width:1;stroke-miterlimit:4;stroke-dasharray:none"
         id="circle4270"
         cx="92.85714"
         cy="802.36224"
         r="6.4285707" />
    </g>
    <g
       transform="translate(161.21321,-37.5)"
       id="g4272">
      <rect
         transform="scale(1,-1)"
         y="-810.74835"
         x="82.327438"
         height="18.818165"
         width="21.213203"
         id="rect4274"
         style="fill:#e6e6e6;fill-opacity:1;stroke:none;stroke-width:1;stroke-miterlimit:4;stroke-dasharray:none" />
      <circle
         r="6.4285707"
         cy="802.36224"
         cx="92.85714"
         id="circle4276"
         style="fill:#d40000;fill-opacity:1;stroke:none;stroke-width:1;stroke-miterlimit:4;stroke-dasharray:none" />
    </g>
    <rect
       style="fill:none;fill-opacity:1;stroke:#000000;stroke-width:0.98141712;stroke-miterlimit:4;stroke-dasharray:none;stroke-opacity:0.44642857"
       id="rect4278"
       width="42.161438"
       height="36.447155"
       x="233.20499"
       y="754.85284" />
    <g
       transform="translate(160.85607,-55.714287)"
       id="g4280">
      <rect
         transform="scale(1,-1)"
         y="-810.74835"
         x="82.327438"
         height="18.818165"
         width="21.213203"
         id="rect4282"
         style="fill:#e6e6e6;fill-opacity:1;stroke:none;stroke-width:1;stroke-miterlimit:4;stroke-dasharray:none" />
      <circle
         r="6.4285707"
         cy="802.36224"
         cx="92.85714"
         id="circle4284"
         style="fill:#d40000;fill-opacity:1;stroke:none;stroke-width:1;stroke-miterlimit:4;stroke-dasharray:none" />
    </g>
    <rect
       y="736.28143"
       x="233.20499"
       height="55.018574"
       width="42.161453"
       id="rect4286"
       style="fill:none;fill-opacity:1;stroke:#000000;stroke-width:0.98141712;stroke-miterlimit:4;stroke-dasharray:none;stroke-opacity:0.44642857" />
    <g
       id="g4288"
       transform="translate(141.21321,-74.642858)">
      <rect
         style="fill:#e6e6e6;fill-opacity:1;stroke:none;stroke-width:1;stroke-miterlimit:4;stroke-dasharray:none"
         id="rect4290"
         width="21.213203"
         height="18.818165"
         x="82.327438"
         y="-810.74835"
         transform="scale(1,-1)" />
      <circle
         style="fill:#d40000;fill-opacity:1;stroke:none;stroke-width:1;stroke-miterlimit:4;stroke-dasharray:none"
         id="circle4292"
         cx="92.85714"
         cy="802.36224"
         r="6.4285707" />
    </g>
    <rect
       style="fill:none;fill-opacity:1;stroke:#000000;stroke-width:0.98141712;stroke-miterlimit:4;stroke-dasharray:none;stroke-opacity:0.44642857"
       id="rect4294"
       width="64.661423"
       height="93.947121"
       x="210.70499"
       y="716.63855" />
    <g
       transform="translate(106.57035,-75.000001)"
       id="g4296">
      <rect
         transform="scale(1,-1)"
         y="-810.74835"
         x="82.327438"
         height="18.818165"
         width="21.213203"
         id="rect4298"
         style="fill:#e6e6e6;fill-opacity:1;stroke:none;stroke-width:1;stroke-miterlimit:4;stroke-dasharray:none" />
      <circle
         r="6.4285707"
         cy="802.36224"
         cx="92.85714"
         id="circle4300"
         style="fill:#d40000;fill-opacity:1;stroke:none;stroke-width:1;stroke-miterlimit:4;stroke-dasharray:none" />
    </g>
    <rect
       y="716.63855"
       x="188.56213"
       height="93.947144"
       width="86.804268"
       id="rect4302"
       style="fill:none;fill-opacity:1;stroke:#000000;stroke-width:0.98141712;stroke-miterlimit:4;stroke-dasharray:none;stroke-opacity:0.44642857" />
    <g
       id="g4304"
       transform="translate(121.57035,-94.285715)">
      <rect
         style="fill:#e6e6e6;fill-opacity:1;stroke:none;stroke-width:1;stroke-miterlimit:4;stroke-dasharray:none"
         id="rect4306"
         width="21.213203"
         height="18.818165"
         x="82.327438"
         y="-810.74835"
         transform="scale(1,-1)" />
      <circle
         style="fill:#d40000;fill-opacity:1;stroke:none;stroke-width:1;stroke-miterlimit:4;stroke-dasharray:none"
         id="circle4308"
         cx="92.85714"
         cy="802.36224"
         r="6.4285707" />
    </g>
    <g
       id="g4310"
       transform="translate(30.141774,-56.785715)">
      <rect
         style="fill:#e6e6e6;fill-opacity:1;stroke:none;stroke-width:1;stroke-miterlimit:4;stroke-dasharray:none"
         id="rect4312"
         width="21.213203"
         height="18.818165"
         x="82.327438"
         y="-810.74835"
         transform="scale(1,-1)" />
      <circle
         style="fill:#d40000;fill-opacity:1;stroke:none;stroke-width:1;stroke-miterlimit:4;stroke-dasharray:none"
         id="circle4314"
         cx="92.85714"
         cy="802.36224"
         r="6.4285707" />
    </g>
    <rect
       y="735.20996"
       x="81.776428"
       height="75.018593"
       width="85.018585"
       id="rect4316"
       style="fill:none;fill-opacity:1;stroke:#000000;stroke-width:0.98141712;stroke-miterlimit:4;stroke-dasharray:none;stroke-opacity:0.47420636" />
    <rect
       style="fill:none;fill-opacity:1;stroke:#000000;stroke-width:0.98141712;stroke-miterlimit:4;stroke-dasharray:none;stroke-opacity:0.43849206"
       id="rect4318"
       width="86.80426"
       height="113.59"
       x="188.56213"
       y="696.99567" />
    <rect
       y="698.06714"
       x="81.776428"
       height="112.16142"
       width="106.80429"
       id="rect4320"
       style="fill:none;fill-opacity:1;stroke:#000000;stroke-width:0.98141712;stroke-miterlimit:4;stroke-dasharray:none;stroke-opacity:0.47420636" />
    <g
       transform="translate(90.141779,-112.85714)"
       id="g4322">
      <rect
         transform="scale(1,-1)"
         y="-810.74835"
         x="82.327438"
         height="18.818165"
         width="21.213203"
         id="rect4324"
         style="fill:#e6e6e6;fill-opacity:1;stroke:none;stroke-width:1;stroke-miterlimit:4;stroke-dasharray:none" />
      <circle
         r="6.4285707"
         cy="802.36224"
         cx="92.85714"
         id="circle4326"
         style="fill:#d40000;fill-opacity:1;stroke:none;stroke-width:1;stroke-miterlimit:4;stroke-dasharray:none" />
    </g>
    <path
       style="fill:none;fill-rule:evenodd;stroke:#000000;stroke-width:1px;stroke-linecap:butt;stroke-linejoin:miter;stroke-opacity:1"
       d="m 182.14286,689.8622 -30,18.57143"
       id="path4328"
       inkscape:connector-curvature="0" />
    <path
       style="fill:none;fill-rule:evenodd;stroke:#000000;stroke-width:1px;stroke-linecap:butt;stroke-linejoin:miter;stroke-opacity:1"
       d="m 147.85714,711.29078 0.35715,16.07142"
       id="path4330"
       inkscape:connector-curvature="0" />
    <path
       style="fill:none;fill-rule:evenodd;stroke:#000000;stroke-width:1px;stroke-linecap:butt;stroke-linejoin:miter;stroke-opacity:1"
       d="m 147.5,730.21935 -24.28571,15.71428"
       id="path4332"
       inkscape:connector-curvature="0" />
    <path
       style="fill:none;fill-rule:evenodd;stroke:#000000;stroke-width:1px;stroke-linecap:butt;stroke-linejoin:miter;stroke-opacity:1"
       d="M 121.42857,748.79078 122.5,766.64792"
       id="path4334"
       inkscape:connector-curvature="0" />
    <path
       style="fill:none;fill-rule:evenodd;stroke:#000000;stroke-width:1px;stroke-linecap:butt;stroke-linejoin:miter;stroke-opacity:1"
       d="m 122.14286,768.07649 -19.28572,15.35714"
       id="path4336"
       inkscape:connector-curvature="0" />
    <path
       style="fill:none;fill-rule:evenodd;stroke:#000000;stroke-width:1px;stroke-linecap:butt;stroke-linejoin:miter;stroke-opacity:1"
       d="M 102.5,787.3622 90.714286,802.71935"
       id="path4338"
       inkscape:connector-curvature="0" />
    <path
       style="fill:none;fill-rule:evenodd;stroke:#000000;stroke-width:1px;stroke-linecap:butt;stroke-linejoin:miter;stroke-opacity:1"
       d="m 105.35714,785.21935 8.21429,16.78571"
       id="path4340"
       inkscape:connector-curvature="0" />
    <path
       style="fill:none;fill-rule:evenodd;stroke:#000000;stroke-width:1px;stroke-linecap:butt;stroke-linejoin:miter;stroke-opacity:1"
       d="m 136.42857,802.00506 9.64286,-19.28571"
       id="path4342"
       inkscape:connector-curvature="0" />
    <path
       style="fill:none;fill-rule:evenodd;stroke:#000000;stroke-width:1px;stroke-linecap:butt;stroke-linejoin:miter;stroke-opacity:1"
       d="M 157.5,801.64792 144.28571,784.50506"
       id="path4344"
       inkscape:connector-curvature="0" />
    <path
       style="fill:none;fill-rule:evenodd;stroke:#000000;stroke-width:1px;stroke-linecap:butt;stroke-linejoin:miter;stroke-opacity:1"
       d="m 122.85714,766.64792 22.5,17.5"
       id="path4346"
       inkscape:connector-curvature="0" />
    <path
       style="fill:none;fill-rule:evenodd;stroke:#000000;stroke-width:1px;stroke-linecap:butt;stroke-linejoin:miter;stroke-opacity:1"
       d="m 176.78571,745.93363 -27.5,-17.5"
       id="path4348"
       inkscape:connector-curvature="0"
       sodipodi:nodetypes="cc" />
    <path
       style="fill:none;fill-rule:evenodd;stroke:#000000;stroke-width:1px;stroke-linecap:butt;stroke-linejoin:miter;stroke-opacity:1"
       d="m 217.5,709.14792 -17.85714,17.85714"
       id="path4350"
       inkscape:connector-curvature="0" />
    <path
       style="fill:none;fill-rule:evenodd;stroke:#000000;stroke-width:1px;stroke-linecap:butt;stroke-linejoin:miter;stroke-opacity:1"
       d="M 234.28571,728.07649 214.64286,709.50506"
       id="path4352"
       inkscape:connector-curvature="0" />
    <path
       style="fill:none;fill-rule:evenodd;stroke:#000000;stroke-width:1px;stroke-linecap:butt;stroke-linejoin:miter;stroke-opacity:1"
       d="m 221.42857,747.00506 12.14286,-20"
       id="path4354"
       inkscape:connector-curvature="0" />
    <path
       style="fill:none;fill-rule:evenodd;stroke:#000000;stroke-width:1px;stroke-linecap:butt;stroke-linejoin:miter;stroke-opacity:1"
       d="M 253.21429,746.64792 233.57143,728.43363"
       id="path4356"
       inkscape:connector-curvature="0" />
    <path
       style="fill:none;fill-rule:evenodd;stroke:#000000;stroke-width:1px;stroke-linecap:butt;stroke-linejoin:miter;stroke-opacity:1"
       d="m 220.35714,765.57649 1.07143,-19.28571"
       id="path4358"
       inkscape:connector-curvature="0" />
    <path
       style="fill:none;fill-rule:evenodd;stroke:#000000;stroke-width:1px;stroke-linecap:butt;stroke-linejoin:miter;stroke-opacity:1"
       d="m 220.71429,784.50506 0.71428,-20"
       id="path4360"
       inkscape:connector-curvature="0" />
    <path
       style="fill:none;fill-rule:evenodd;stroke:#000000;stroke-width:1px;stroke-linecap:butt;stroke-linejoin:miter;stroke-opacity:1"
       d="m 221.42857,801.64792 -0.71428,-17.5"
       id="path4362"
       inkscape:connector-curvature="0" />
    <path
       style="fill:none;fill-rule:evenodd;stroke:#000000;stroke-width:1px;stroke-linecap:butt;stroke-linejoin:miter;stroke-opacity:1"
       d="M 243.21429,783.07649 255,764.14792"
       id="path4364"
       inkscape:connector-curvature="0" />
    <path
       style="fill:none;fill-rule:evenodd;stroke:#000000;stroke-width:1px;stroke-linecap:butt;stroke-linejoin:miter;stroke-opacity:1"
       d="M 265.71429,783.07649 253.57143,765.21935"
       id="path4366"
       inkscape:connector-curvature="0" />
    <path
       style="fill:none;fill-rule:evenodd;stroke:#000000;stroke-width:1px;stroke-linecap:butt;stroke-linejoin:miter;stroke-opacity:1"
       d="m 252.5,746.29078 0.71429,19.28571"
       id="path4368"
       inkscape:connector-curvature="0" />
    <path
       style="fill:none;fill-rule:evenodd;stroke:#000000;stroke-width:1px;stroke-linecap:butt;stroke-linejoin:miter;stroke-opacity:1"
       d="M 213.92857,707.71935 182.5,689.50506"
       id="path4370"
       inkscape:connector-curvature="0" />
    <text
       xml:space="preserve"
       style="font-style:normal;font-weight:normal;font-size:8.23821354px;line-height:125%;font-family:sans-serif;letter-spacing:0px;word-spacing:0px;fill:#000000;fill-opacity:1;stroke:none;stroke-width:1px;stroke-linecap:butt;stroke-linejoin:miter;stroke-opacity:1"
       x="138.95427"
       y="703.12079"
       id="text5855"
       sodipodi:linespacing="125%"><tspan
         sodipodi:role="line"
         id="tspan5857"
         x="138.95427"
         y="703.12079">1</tspan></text>
    <text
       sodipodi:linespacing="125%"
       id="text5859"
       y="723.12073"
       x="138.23999"
       style="font-style:normal;font-weight:normal;font-size:8.23821354px;line-height:125%;font-family:sans-serif;letter-spacing:0px;word-spacing:0px;fill:#000000;fill-opacity:1;stroke:none;stroke-width:1px;stroke-linecap:butt;stroke-linejoin:miter;stroke-opacity:1"
       xml:space="preserve"><tspan
         y="723.12073"
         x="138.23999"
         id="tspan5861"
         sodipodi:role="line">2</tspan></text>
    <text
       xml:space="preserve"
       style="font-style:normal;font-weight:normal;font-size:8.23821354px;line-height:125%;font-family:sans-serif;letter-spacing:0px;word-spacing:0px;fill:#000000;fill-opacity:1;stroke:none;stroke-width:1px;stroke-linecap:butt;stroke-linejoin:miter;stroke-opacity:1"
       x="111.81142"
       y="741.69214"
       id="text5863"
       sodipodi:linespacing="125%"><tspan
         sodipodi:role="line"
         id="tspan5865"
         x="111.81142"
         y="741.69214">3</tspan></text>
    <text
       sodipodi:linespacing="125%"
       id="text5867"
       y="759.90643"
       x="111.24"
       style="font-style:normal;font-weight:normal;font-size:8.23821354px;line-height:125%;font-family:sans-serif;letter-spacing:0px;word-spacing:0px;fill:#000000;fill-opacity:1;stroke:none;stroke-width:1px;stroke-linecap:butt;stroke-linejoin:miter;stroke-opacity:1"
       xml:space="preserve"><tspan
         y="759.90643"
         x="111.24"
         id="tspan5869"
         sodipodi:role="line">4</tspan></text>
    <text
       xml:space="preserve"
       style="font-style:normal;font-weight:normal;font-size:8.23821354px;line-height:125%;font-family:sans-serif;letter-spacing:0px;word-spacing:0px;fill:#000000;fill-opacity:1;stroke:none;stroke-width:1px;stroke-linecap:butt;stroke-linejoin:miter;stroke-opacity:1"
       x="92.097137"
       y="780.26361"
       id="text5871"
       sodipodi:linespacing="125%"><tspan
         sodipodi:role="line"
         id="tspan5873"
         x="92.097137"
         y="780.26361">5</tspan></text>
    <text
       sodipodi:linespacing="125%"
       id="text5875"
       y="797.04932"
       x="80.811424"
       style="font-style:normal;font-weight:normal;font-size:8.23821354px;line-height:125%;font-family:sans-serif;letter-spacing:0px;word-spacing:0px;fill:#000000;fill-opacity:1;stroke:none;stroke-width:1px;stroke-linecap:butt;stroke-linejoin:miter;stroke-opacity:1"
       xml:space="preserve"><tspan
         y="797.04932"
         x="80.811424"
         id="tspan5877"
         sodipodi:role="line">6</tspan></text>
    <text
       xml:space="preserve"
       style="font-style:normal;font-weight:normal;font-size:8.23821354px;line-height:125%;font-family:sans-serif;letter-spacing:0px;word-spacing:0px;fill:#000000;fill-opacity:1;stroke:none;stroke-width:1px;stroke-linecap:butt;stroke-linejoin:miter;stroke-opacity:1"
       x="117.16856"
       y="795.97784"
       id="text5879"
       sodipodi:linespacing="125%"><tspan
         sodipodi:role="line"
         id="tspan5881"
         x="117.16856"
         y="795.97784">7</tspan></text>
    <text
       sodipodi:linespacing="125%"
       id="text5883"
       y="779.54932"
       x="150.31142"
       style="font-style:normal;font-weight:normal;font-size:8.23821354px;line-height:125%;font-family:sans-serif;letter-spacing:0px;word-spacing:0px;fill:#000000;fill-opacity:1;stroke:none;stroke-width:1px;stroke-linecap:butt;stroke-linejoin:miter;stroke-opacity:1"
       xml:space="preserve"><tspan
         y="779.54932"
         x="150.31142"
         id="tspan5885"
         sodipodi:role="line">8</tspan></text>
    <text
       xml:space="preserve"
       style="font-style:normal;font-weight:normal;font-size:8.23821354px;line-height:125%;font-family:sans-serif;letter-spacing:0px;word-spacing:0px;fill:#000000;fill-opacity:1;stroke:none;stroke-width:1px;stroke-linecap:butt;stroke-linejoin:miter;stroke-opacity:1"
       x="140.95428"
       y="800.62073"
       id="text5887"
       sodipodi:linespacing="125%"><tspan
         sodipodi:role="line"
         id="tspan5889"
         x="140.95428"
         y="800.62073">9</tspan></text>
    <text
       sodipodi:linespacing="125%"
       id="text5891"
       y="799.90643"
       x="157.66856"
       style="font-style:normal;font-weight:normal;font-size:8.23821354px;line-height:125%;font-family:sans-serif;letter-spacing:0px;word-spacing:0px;fill:#000000;fill-opacity:1;stroke:none;stroke-width:1px;stroke-linecap:butt;stroke-linejoin:miter;stroke-opacity:1"
       xml:space="preserve"><tspan
         y="799.90643"
         x="157.66856"
         id="tspan5893"
         sodipodi:role="line">10</tspan></text>
    <text
       xml:space="preserve"
       style="font-style:normal;font-weight:normal;font-size:8.23821354px;line-height:125%;font-family:sans-serif;letter-spacing:0px;word-spacing:0px;fill:#000000;fill-opacity:1;stroke:none;stroke-width:1px;stroke-linecap:butt;stroke-linejoin:miter;stroke-opacity:1"
       x="173.52571"
       y="738.47784"
       id="text5895"
       sodipodi:linespacing="125%"><tspan
         sodipodi:role="line"
         id="tspan5897"
         x="173.52571"
         y="738.47784">11</tspan></text>
    <text
       sodipodi:linespacing="125%"
       id="text5899"
       y="700.26361"
       x="215.95428"
       style="font-style:normal;font-weight:normal;font-size:8.23821354px;line-height:125%;font-family:sans-serif;letter-spacing:0px;word-spacing:0px;fill:#000000;fill-opacity:1;stroke:none;stroke-width:1px;stroke-linecap:butt;stroke-linejoin:miter;stroke-opacity:1"
       xml:space="preserve"><tspan
         y="700.26361"
         x="215.95428"
         id="tspan5901"
         sodipodi:role="line">12</tspan></text>
    <text
       xml:space="preserve"
       style="font-style:normal;font-weight:normal;font-size:8.23821354px;line-height:125%;font-family:sans-serif;letter-spacing:0px;word-spacing:0px;fill:#000000;fill-opacity:1;stroke:none;stroke-width:1px;stroke-linecap:butt;stroke-linejoin:miter;stroke-opacity:1"
       x="186.59714"
       y="720.97784"
       id="text5903"
       sodipodi:linespacing="125%"><tspan
         sodipodi:role="line"
         id="tspan5905"
         x="186.59714"
         y="720.97784">13</tspan></text>
    <text
       sodipodi:linespacing="125%"
       id="text5907"
       y="720.26361"
       x="240.09714"
       style="font-style:normal;font-weight:normal;font-size:8.23821354px;line-height:125%;font-family:sans-serif;letter-spacing:0px;word-spacing:0px;fill:#000000;fill-opacity:1;stroke:none;stroke-width:1px;stroke-linecap:butt;stroke-linejoin:miter;stroke-opacity:1"
       xml:space="preserve"><tspan
         y="720.26361"
         x="240.09714"
         id="tspan5909"
         sodipodi:role="line">14</tspan></text>
    <text
       xml:space="preserve"
       style="font-style:normal;font-weight:normal;font-size:8.23821354px;line-height:125%;font-family:sans-serif;letter-spacing:0px;word-spacing:0px;fill:#000000;fill-opacity:1;stroke:none;stroke-width:1px;stroke-linecap:butt;stroke-linejoin:miter;stroke-opacity:1"
       x="209.31142"
       y="740.97784"
       id="text5911"
       sodipodi:linespacing="125%"><tspan
         sodipodi:role="line"
         id="tspan5913"
         x="209.31142"
         y="740.97784">15</tspan></text>
    <text
       sodipodi:linespacing="125%"
       id="text5915"
       y="761.69214"
       x="204.59714"
       style="font-style:normal;font-weight:normal;font-size:8.23821354px;line-height:125%;font-family:sans-serif;letter-spacing:0px;word-spacing:0px;fill:#000000;fill-opacity:1;stroke:none;stroke-width:1px;stroke-linecap:butt;stroke-linejoin:miter;stroke-opacity:1"
       xml:space="preserve"><tspan
         y="761.69214"
         x="204.59714"
         id="tspan5917"
         sodipodi:role="line">16</tspan></text>
    <text
       xml:space="preserve"
       style="font-style:normal;font-weight:normal;font-size:8.23821354px;line-height:125%;font-family:sans-serif;letter-spacing:0px;word-spacing:0px;fill:#000000;fill-opacity:1;stroke:none;stroke-width:1px;stroke-linecap:butt;stroke-linejoin:miter;stroke-opacity:1"
       x="203.81143"
       y="783.83502"
       id="text5919"
       sodipodi:linespacing="125%"><tspan
         sodipodi:role="line"
         id="tspan5921"
         x="203.81143"
         y="783.83502">17</tspan></text>
    <text
       sodipodi:linespacing="125%"
       id="text5923"
       y="805.97784"
       x="203.38286"
       style="font-style:normal;font-weight:normal;font-size:8.23821354px;line-height:125%;font-family:sans-serif;letter-spacing:0px;word-spacing:0px;fill:#000000;fill-opacity:1;stroke:none;stroke-width:1px;stroke-linecap:butt;stroke-linejoin:miter;stroke-opacity:1"
       xml:space="preserve"><tspan
         y="805.97784"
         x="203.38286"
         id="tspan5925"
         sodipodi:role="line">18</tspan></text>
    <text
       xml:space="preserve"
       style="font-style:normal;font-weight:normal;font-size:8.23821354px;line-height:125%;font-family:sans-serif;letter-spacing:0px;word-spacing:0px;fill:#000000;fill-opacity:1;stroke:none;stroke-width:1px;stroke-linecap:butt;stroke-linejoin:miter;stroke-opacity:1"
       x="258.31143"
       y="741.69214"
       id="text5927"
       sodipodi:linespacing="125%"><tspan
         sodipodi:role="line"
         id="tspan5929"
         x="258.31143"
         y="741.69214">19</tspan></text>
    <text
       sodipodi:linespacing="125%"
       id="text5931"
       y="762.04932"
       x="258.95428"
       style="font-style:normal;font-weight:normal;font-size:8.23821354px;line-height:125%;font-family:sans-serif;letter-spacing:0px;word-spacing:0px;fill:#000000;fill-opacity:1;stroke:none;stroke-width:1px;stroke-linecap:butt;stroke-linejoin:miter;stroke-opacity:1"
       xml:space="preserve"><tspan
         y="762.04932"
         x="258.95428"
         id="tspan5933"
         sodipodi:role="line">20</tspan></text>
    <text
       xml:space="preserve"
       style="font-style:normal;font-weight:normal;font-size:8.23821354px;line-height:125%;font-family:sans-serif;letter-spacing:0px;word-spacing:0px;fill:#000000;fill-opacity:1;stroke:none;stroke-width:1px;stroke-linecap:butt;stroke-linejoin:miter;stroke-opacity:1"
       x="233.52571"
       y="775.62073"
       id="text5935"
       sodipodi:linespacing="125%"><tspan
         sodipodi:role="line"
         id="tspan5937"
         x="233.52571"
         y="775.62073">21</tspan></text>
    <text
       sodipodi:linespacing="125%"
       id="text5939"
       y="777.76361"
       x="271.31143"
       style="font-style:normal;font-weight:normal;font-size:8.23821354px;line-height:125%;font-family:sans-serif;letter-spacing:0px;word-spacing:0px;fill:#000000;fill-opacity:1;stroke:none;stroke-width:1px;stroke-linecap:butt;stroke-linejoin:miter;stroke-opacity:1"
       xml:space="preserve"><tspan
         y="777.76361"
         x="271.31143"
         id="tspan5941"
         sodipodi:role="line">22</tspan></text>
    <text
       sodipodi:linespacing="125%"
       id="text5947"
       y="685.26367"
       x="173.23999"
       style="font-style:normal;font-weight:normal;font-size:8.23821354px;line-height:125%;font-family:sans-serif;letter-spacing:0px;word-spacing:0px;fill:#000000;fill-opacity:1;stroke:none;stroke-width:1px;stroke-linecap:butt;stroke-linejoin:miter;stroke-opacity:1"
       xml:space="preserve"><tspan
         y="685.26367"
         x="173.23999"
         id="tspan5949"
         sodipodi:role="line">0</tspan></text>
  </g>
</svg>
